{
		"menu": {
		"top":60, 
		"left":100, 
		"bottom":60, 
		"right":100,
		"translucent":true,
		"menuTitle":"Mobile",
		"titleColor":"#005882",
		"tilesData":
		[
			 {	
			  	"top":0, 
				"left":0, 
				"height":"33%", 
				"width":"40%", 
				"tileDetails":{
					"padTop":10,
					"padLeft":10,
					"padBottom":0,
					"padRight":0,
					"backgroundColor":"#99005882",
					"icon":"icons/white/cscMobile.png",
					"menuMetaData":{"tagName":"mobile.Strategy", "fileType":"pdf", "version":1, "fileName":"Mobile_Strategy_Services_battlecard_v1.pdf"},
					"webPath":"https://portal.amer.csc.com/wiki/display/SalesCat/Mobile+Strategy+Services",
					"font":{"fontName":"helvetica neau light","fontSize":"25dp","fontWeight":"light"},
					"title":"Mobile Strategy Services"
				}
			},
			{
			  	"top":0, 
				"right":0, 
				"height":"33%", 
				"width":"60%",
				"tileDetails":{
					"padTop":10,
					"padLeft":10,
					"padBottom":0,
					"padRight":10,
					"backgroundColor":"#99005882",
					"icon":"icons/white/cscMobile.png",
					"menuMetaData":{"tagName":"mobile.Development", "fileType":"pdf", "version":1, "fileName":"Mobile_AppDev_battlecard_v1.pdf"},
					"webPath":"https://portal.amer.csc.com/wiki/display/SalesCat/Mobile+Application+Development",
					"font":{"fontName":"helvetica neau light","fontSize":"25dp","fontWeight":"light"},
					"title":"Mobile Application Development"
				}		
			},
			{
			  	"top":"33%", 
				"left":0, 
				"height":"33%", 
				"width":"60%", 
				"tileDetails":{
					"padTop":10,
					"padLeft":10,
					"padBottom":0,
					"padRight":0,
					"backgroundColor":"#99005882",
					"icon":"icons/white/cscMobile.png",
					"menuMetaData":{"tagName":"mobile.Managed", "fileType":"docx", "version":1, "fileName":"Document1.doc"},
					"webPath":"https://portal.amer.csc.com/wiki/display/SalesCat/Mobile+Managed+Services",
					"font":{"fontName":"helvetica neau light","fontSize":"25dp","fontWeight":"light"},
					"title":"Mobile Managed Services"
				}		
			},
			{
			  	"top":"33%", 
				"right":0, 
				"height":"33%", 
				"width":"40%", 
				"tileDetails":{
					"padTop":10,
					"padLeft":10,
					"padBottom":0,
					"padRight":10,
					"backgroundColor":"#99005882",
					"icon":"icons/white/cscMobile.png",
					"menuMetaData":{"tagName":"mobile.MyWorkStyles", "fileType":"movie", "version":1, "fileName":"codeschool_1331.mp4"},
					"webPath":"https://portal.amer.csc.com/wiki/display/SalesCat/Workplace",
					"font":{"fontName":"helvetica neau light","fontSize":"25dp","fontWeight":"light"},
					"title":"MyWorkStyles"
				}		
			},
			{
			  	"bottom":0,
			  	"left":0, 
				"height":"34%", 
				"width":"40%", 
				"tileDetails":{
					"padTop":10,
					"padLeft":10,
					"padBottom":10,
					"padRight":0,
					"quarter":"comingQ3.png",
					"backgroundColor":"#99005882",
					"icon":"icons/white/cscMobile.png",
					"menuMetaData":{"tagName":"mobile.Location", "fileType":"pdf", "version":1, "fileName":""},
					"webPath":"https://portal.amer.csc.com/wiki/display/SalesCat/OmniLocation+MachinEdge+(OME)",
					"font":{"fontName":"helvetica neau light","fontSize":"25dp","fontWeight":"light"},
					"title":"Machine and Location Services"
				}		
			},
			{
	
			  	"bottom":0, 
				"right":0, 
				"height":"34%", 
				"width":"60%", 
				"tileDetails":{
					"padTop":10,
					"padLeft":10,
					"padBottom":10,
					"padRight":0,
					"quarter":"comingQ3.png",
					"backgroundColor":"#99005882",
					"icon":"icons/white/cscMobile.png",
					"menuMetaData":{"tagName":"mobile.Experience", "fileType":"pdf", "version":1, "fileName":""},
					"webPath":"https://portal.amer.csc.com/wiki/display/SalesCat/User+Experience",
					"font":{"fontName":"helvetica neau light","fontSize":"25dp","fontWeight":"light"},
					"title":"Mobile User Experience Services"
				}
			}
		]	
	}
}