{
	"menu":{
		"top":60, 
		"left":100, 
		"bottom":60, 
		"right":100,
		"translucent":true,
		"menuTitle":"Next Gen Apps",
		"titleColor":"#2e2658",
		"tilesData":
		[
			 {	
			  	"top":0, 
				"left":0, 
				"height":"40%", 
				"width":"40%", 
				"tileDetails":{
					"padTop":10,
					"padLeft":10,
					"padBottom":0,
					"padRight":0,
					"backgroundColor":"#992e2658",
					"menuMetaData":{"tagName":"nextGenApps.FutureEdge", "fileType":"pdf", "version":1, "fileName":"NextGenApps_FuturEdge_battlecard_v1.pdf"},
					"webPath":"https://portal.amer.csc.com/wiki/display/SalesCat/FuturEdge+for+Modernization",
					"icon":"icons/white/cscApps.png",
					"font":{"fontName":"helvetica neau light","fontSize":"25dp","fontWeight":"light"},
					"title":"FutureEdge for Modernization"
				}
			},
			{
			  	"top":0, 
				"right":0, 
				"height":"40%", 
				"width":"60%",
				"tileDetails":{
					"padTop":10,
					"padLeft":10,
					"padBottom":0,
					"padRight":10,
					"quarter":"comingQ2.png",
					"backgroundColor":"#992e2658",
					"menuMetaData":{"tagName":"nextGenApps.Management", "fileType":"pdf", "version":1, "fileName":""},
					"webPath":"https://portal.amer.csc.com/wiki/display/SalesCat/Custom+Apps+and+Expert+Services",
					"icon":"icons/white/cscApps.png",
					"font":{"fontName":"helvetica neau light","fontSize":"25dp","fontWeight":"light"},
					"title":"Application Management\n-as-a-Service"
				}		
			},
			{
			  	"top":"40%", 
				"left":0, 
				"height":"30%", 
				"width":"50%", 
				"tileDetails":{
					"padTop":10,
					"padLeft":10,
					"padBottom":0,
					"padRight":0,
					"quarter":"comingQ2.png",
					"backgroundColor":"#992e2658",
					"menuMetaData":{"tagName":"nextGenApps.Development", "fileType":"pdf", "version":1, "fileName":""},
					"webPath":"https://portal.amer.csc.com/wiki/display/SalesCat/Custom+Apps+and+Expert+Services",
					"icon":"icons/white/cscApps.png",
					"font":{"fontName":"helvetica neau light","fontSize":"25dp","fontWeight":"light"},
					"title":"Application Development\n-as-a-Service"
				}
			},
	
			{
			  	"top":"40%", 
				"right":0, 
				"height":"30%", 
				"width":"50%", 
				"tileDetails":{
					"padTop":10,
					"padLeft":10,
					"padBottom":0,
					"padRight":10,
					"quarter":"comingQ3.png",
					"backgroundColor":"#992e2658",
					"menuMetaData":{"tagName":"nextGenApps.ERP", "fileType":"pdf", "version":1, "fileName":""},
					"webPath":"https://portal.amer.csc.com/wiki/display/SalesCat/Enterprise+and+SI+Consulting",
					"icon":"icons/white/cscApps.png",
					"font":{"fontName":"helvetica neau light","fontSize":"25dp","fontWeight":"light"},
					"title":"ERP-as-a-Service (Consulting, Implementation & Management)"
				}		
			}, 
			{
			  	"bottom":0, 
			  	"left":0,
				"height":"30%", 
				"width":"60%", 
				"tileDetails":{
					"padTop":10,
					"padLeft":10,
					"padBottom":10,
					"padRight":0,
					"quarter":"comingQ4.png",
					"backgroundColor":"#992e2658",
					"menuMetaData":{"tagName":"nextGenApps.Testing", "fileType":"pdf", "version":1, "fileName":""},
					"webPath":"https://portal.amer.csc.com/wiki/display/SalesCat/Lifecycle+Testing",
					"icon":"icons/white/cscApps.png",
					"font":{"fontName":"helvetica neau light","fontSize":"25dp","fontWeight":"light"},
					"title":"Independant Testing Services"
				}		
			},
			{
			  	"bottom":0, 
			  	"right":0,
				"height":"30%", 
				"width":"40%", 
				"tileDetails":{
					"padTop":10,
					"padLeft":10,
					"padBottom":10,
					"padRight":10,
					"quarter":"comingQ4.png",
					"backgroundColor":"#992e2658",
					"menuMetaData":{"tagName":"nextGenApps.Acceleration", "fileType":"pdf", "version":1, "fileName":""},
					"webPath":"https://portal.amer.csc.com/wiki/display/SalesCat/Next-Gen+Apps+for+the+As-a-Service+Economy",
					"icon":"icons/white/cscApps.png",
					"font":{"fontName":"helvetica neau light","fontSize":"25dp","fontWeight":"light"},
					"title":"DevOps Acceleration"
				}		
			}
		]	
	}
}